lab5-2/Structural Description/simulation/qsim/Full_Adder_Structural.msim.vcd
$comment
	File created using the following command:
		vcd file Full_Adder_Structural.msim.vcd -direction
$end
$date
	Mon Oct 16 23:28:04 2023
$end
$version
	ModelSim Version 10.5b
$end
$timescale
	1ps
$end

$scope module Full_Adder_Structural_vlg_vec_tst $end
$var reg 1 ! a $end
$var reg 1 " b $end
$var reg 1 # c_in $end
$var wire 1 $ c_out $end
$var wire 1 % sum $end

$scope module i1 $end
$var wire 1 & gnd $end
$var wire 1 ' vcc $end
$var wire 1 ( unknown $end
$var tri1 1 ) devclrn $end
$var tri1 1 * devpor $end
$var tri1 1 + devoe $end
$var wire 1 , ~QUARTUS_CREATED_GND~I_combout $end
$var wire 1 - a~input_o $end
$var wire 1 . c_in~input_o $end
$var wire 1 / b~input_o $end
$var wire 1 0 xor2~combout $end
$var wire 1 1 or1~combout $end
$upscope $end
$upscope $end
$enddefinitions $end
#0
$dumpvars
0!
0"
0#
0$
0%
0&
1'
x(
1)
1*
1+
0,
0-
0.
0/
00
01
$end
#10000
1#
1.
10
1%
#20000
1"
0#
1/
0.
#30000
1#
1.
11
00
0%
1$
#40000
1!
0"
0#
1-
0/
0.
01
10
1%
0$
#50000
1#
1.
11
00
0%
1$
#60000
1"
0#
1/
0.
#70000
1#
1.
10
1%
#80000
0!
0"
0#
0-
0/
0.
01
00
0%
0$
